{
    "Enemise": [
		{"ID":"Enemy01","HP": "100","ATK": "10"},
		{"ID":"Enemy02","HP": "200","ATK": "20"},
		{"ID":"Enemy03","HP": "300","ATK": "30"},
		{"ID":"Enemy04","HP": "400","ATK": "50"},
		{"ID":"Enemy05","HP": "500","ATK": "100"}
	]
}